{
    "modelName": "metricator-nmon-config",
    "displayName": "NMON Config - Inventory Items extracted from Nmon raw data",
    "description": "Configuration Items extracted from Nmon files raw data during data conversion, formerly AAA and BBB sections of Nmon",
    "objectSummary": {
        "Event-Based": 2,
        "Transaction-Based": 0,
        "Search-Based": 0
    },
    "objects": [
        {
            "objectName": "Nmon_Config",
            "displayName": "Nmon Config",
            "parentName": "BaseEvent",
            "comment": "",
            "fields": [
                {
                    "fieldName": "uptime",
                    "owner": "Nmon_Config",
                    "type": "string",
                    "fieldSearch": "",
                    "required": false,
                    "multivalue": false,
                    "hidden": false,
                    "editable": true,
                    "displayName": "uptime",
                    "comment": ""
                },
                {
                    "fieldName": "OStype",
                    "owner": "Nmon_Config",
                    "type": "string",
                    "fieldSearch": "",
                    "required": false,
                    "multivalue": false,
                    "hidden": false,
                    "editable": true,
                    "displayName": "OStype",
                    "comment": ""
                },
                {
                    "fieldName": "_time",
                    "owner": "BaseEvent",
                    "type": "timestamp",
                    "fieldSearch": "",
                    "required": false,
                    "multivalue": false,
                    "hidden": false,
                    "editable": true,
                    "displayName": "_time",
                    "comment": ""
                },
                {
                    "fieldName": "host",
                    "owner": "BaseEvent",
                    "type": "string",
                    "fieldSearch": "",
                    "required": false,
                    "multivalue": false,
                    "hidden": false,
                    "editable": true,
                    "displayName": "host",
                    "comment": ""
                },
                {
                    "fieldName": "source",
                    "owner": "BaseEvent",
                    "type": "string",
                    "fieldSearch": "",
                    "required": false,
                    "multivalue": false,
                    "hidden": false,
                    "editable": true,
                    "displayName": "source",
                    "comment": ""
                },
                {
                    "fieldName": "sourcetype",
                    "owner": "BaseEvent",
                    "type": "string",
                    "fieldSearch": "",
                    "required": false,
                    "multivalue": false,
                    "hidden": false,
                    "editable": true,
                    "displayName": "sourcetype",
                    "comment": ""
                }
            ],
            "calculations": [
                {
                    "outputFields": [
                        {
                            "fieldName": "hostname",
                            "owner": "Nmon_Config",
                            "type": "string",
                            "fieldSearch": "",
                            "required": false,
                            "multivalue": false,
                            "hidden": false,
                            "editable": true,
                            "displayName": "hostname",
                            "comment": ""
                        }
                    ],
                    "inputField": "_raw",
                    "calculationID": "lhdt9ze28bz0vn29",
                    "owner": "Nmon_Config",
                    "editable": true,
                    "comment": "",
                    "calculationType": "Rex",
                    "expression": "(?i),host,(?P<hostname>.+)"
                },
                {
                    "outputFields": [
                        {
                            "fieldName": "nmon_version",
                            "owner": "Nmon_Config",
                            "type": "string",
                            "fieldSearch": "",
                            "required": false,
                            "multivalue": false,
                            "hidden": false,
                            "editable": true,
                            "displayName": "nmon_version",
                            "comment": ""
                        }
                    ],
                    "inputField": "_raw",
                    "calculationID": "e8lnyo90pbfenrk9",
                    "owner": "Nmon_Config",
                    "editable": true,
                    "comment": "",
                    "calculationType": "Rex",
                    "expression": "(?i),version,(?P<nmon_version>.+)"
                },
                {
                    "outputFields": [
                        {
                            "fieldName": "nmon_command",
                            "owner": "Nmon_Config",
                            "type": "string",
                            "fieldSearch": "",
                            "required": false,
                            "multivalue": false,
                            "hidden": false,
                            "editable": true,
                            "displayName": "nmon_command",
                            "comment": ""
                        }
                    ],
                    "inputField": "_raw",
                    "calculationID": "88chrxwn9gbbuik9",
                    "owner": "Nmon_Config",
                    "editable": true,
                    "comment": "",
                    "calculationType": "Rex",
                    "expression": "(?i),command,(?P<nmon_command>.+)"
                },
                {
                    "outputFields": [
                        {
                            "fieldName": "OS",
                            "owner": "Nmon_Config",
                            "type": "string",
                            "fieldSearch": "",
                            "required": false,
                            "multivalue": false,
                            "hidden": false,
                            "editable": true,
                            "displayName": "OS",
                            "comment": ""
                        }
                    ],
                    "inputField": "_raw",
                    "calculationID": "jcedujs1ktbuik9",
                    "owner": "Nmon_Config",
                    "editable": true,
                    "comment": "",
                    "calculationType": "Rex",
                    "expression": "(?i),OS,(?P<OS>[^,]+)"
                },
                {
                    "outputFields": [
                        {
                            "fieldName": "cpu_cores_position1",
                            "owner": "Nmon_Config",
                            "type": "string",
                            "fieldSearch": "",
                            "required": false,
                            "multivalue": false,
                            "hidden": false,
                            "editable": true,
                            "displayName": "cpu_cores_position1",
                            "comment": ""
                        }
                    ],
                    "inputField": "_raw",
                    "calculationID": "ea2yz4wfub2fn7b9",
                    "owner": "Nmon_Config",
                    "editable": true,
                    "comment": "",
                    "calculationType": "Rex",
                    "expression": "AAA,cpus,(?P<cpu_cores_position1>\\d+)"
                },
                {
                    "outputFields": [
                        {
                            "fieldName": "cpu_cores_position2",
                            "owner": "Nmon_Config",
                            "type": "string",
                            "fieldSearch": "",
                            "required": false,
                            "multivalue": false,
                            "hidden": false,
                            "editable": true,
                            "displayName": "cpu_cores_position2",
                            "comment": ""
                        }
                    ],
                    "inputField": "_raw",
                    "calculationID": "fb57vy93ygzgds4i",
                    "owner": "Nmon_Config",
                    "editable": true,
                    "comment": "",
                    "calculationType": "Rex",
                    "expression": "AAA,cpus,\\d+,(?P<cpu_cores_position2>\\d+)"
                },
                {
                    "outputFields": [
                        {
                            "fieldName": "AIX_LEVEL",
                            "owner": "Nmon_Config",
                            "type": "string",
                            "fieldSearch": "",
                            "required": false,
                            "multivalue": false,
                            "hidden": false,
                            "editable": true,
                            "displayName": "AIX_LEVEL",
                            "comment": ""
                        }
                    ],
                    "inputField": "_raw",
                    "calculationID": "en7787whturtfbt9",
                    "owner": "Nmon_Config",
                    "editable": true,
                    "comment": "",
                    "calculationType": "Rex",
                    "expression": "AAA,AIX,(?P<AIX_LEVEL>.+)"
                },
                {
                    "outputFields": [
                        {
                            "fieldName": "AIX_virtualcpus",
                            "owner": "Nmon_Config",
                            "type": "string",
                            "fieldSearch": "",
                            "required": false,
                            "multivalue": false,
                            "hidden": false,
                            "editable": true,
                            "displayName": "AIX_virtualcpus",
                            "comment": ""
                        }
                    ],
                    "inputField": "_raw",
                    "calculationID": "xkp663uk5qj8aor",
                    "owner": "Nmon_Config",
                    "editable": true,
                    "comment": "",
                    "calculationType": "Rex",
                    "expression": "BBB.+,[0-9].+,lparstat.+,\\\"Online\\sVirtual\\sCPUs\\s+\\:\\s(?P<AIX_virtualcpus>\\d+)\\\""
                },
                {
                    "outputFields": [
                        {
                            "fieldName": "AIX_memory_MB",
                            "owner": "Nmon_Config",
                            "type": "string",
                            "fieldSearch": "",
                            "required": false,
                            "multivalue": false,
                            "hidden": false,
                            "editable": true,
                            "displayName": "AIX_memory_MB",
                            "comment": ""
                        }
                    ],
                    "inputField": "_raw",
                    "calculationID": "7s93d3dvqk2wqaor",
                    "owner": "Nmon_Config",
                    "editable": true,
                    "comment": "",
                    "calculationType": "Rex",
                    "expression": "BBB.+,[0-9].+,online\\sMemory,(?P<AIX_memory_MB>\\d+)"
                },
                {
                    "outputFields": [
                        {
                            "fieldName": "AIX_pagingspace_MB",
                            "owner": "Nmon_Config",
                            "type": "string",
                            "fieldSearch": "",
                            "required": false,
                            "multivalue": false,
                            "hidden": false,
                            "editable": true,
                            "displayName": "AIX_pagingspace_MB",
                            "comment": ""
                        }
                    ],
                    "inputField": "_raw",
                    "calculationID": "1z7xe35h49qf47vi",
                    "owner": "Nmon_Config",
                    "editable": true,
                    "comment": "",
                    "calculationType": "Rex",
                    "expression": "BBB.+,[0-9].+,lsconf,\\\"\\s+Total\\sPaging\\sSpace:\\s(?P<AIX_pagingspace_MB>\\d+)"
                },
                {
                    "outputFields": [
                        {
                            "fieldName": "AIX_processor_mode",
                            "owner": "Nmon_Config",
                            "type": "string",
                            "fieldSearch": "",
                            "required": false,
                            "multivalue": false,
                            "hidden": false,
                            "editable": true,
                            "displayName": "AIX_processor_mode",
                            "comment": ""
                        }
                    ],
                    "inputField": "_raw",
                    "calculationID": "v9gn2caephbk2o6r",
                    "owner": "Nmon_Config",
                    "editable": true,
                    "comment": "",
                    "calculationType": "Rex",
                    "expression": "BBB.+,[0-9].+,lsconf,\\\"Processor\\sImplementation\\sMode:\\s(?P<AIX_processor_mode>.+\\w)\\\""
                },
                {
                    "outputFields": [
                        {
                            "fieldName": "AIX_processor_clockspeed",
                            "owner": "Nmon_Config",
                            "type": "string",
                            "fieldSearch": "",
                            "required": false,
                            "multivalue": false,
                            "hidden": false,
                            "editable": true,
                            "displayName": "AIX_processor_clockspeed",
                            "comment": ""
                        }
                    ],
                    "inputField": "_raw",
                    "calculationID": "1n6iy95biz5s714i",
                    "owner": "Nmon_Config",
                    "editable": true,
                    "comment": "",
                    "calculationType": "Rex",
                    "expression": "BBB.+,[0-9].+,lsconf,\\\"Processor\\sClock\\sSpeed:\\s(?P<AIX_processor_clockspeed>.+\\w)\\\""
                },
                {
                    "outputFields": [
                        {
                            "fieldName": "AIX_cpu_type",
                            "owner": "Nmon_Config",
                            "type": "string",
                            "fieldSearch": "",
                            "required": false,
                            "multivalue": false,
                            "hidden": false,
                            "editable": true,
                            "displayName": "AIX_cpu_type",
                            "comment": ""
                        }
                    ],
                    "inputField": "_raw",
                    "calculationID": "8a3tjz556wasjor",
                    "owner": "Nmon_Config",
                    "editable": true,
                    "comment": "",
                    "calculationType": "Rex",
                    "expression": "BBB.+,[0-9].+,lsconf,\\\"CPU\\sType:\\s(?P<AIX_cpu_type>.+\\w)\\\""
                },
                {
                    "outputFields": [
                        {
                            "fieldName": "AIX_kernel_type",
                            "owner": "Nmon_Config",
                            "type": "string",
                            "fieldSearch": "",
                            "required": false,
                            "multivalue": false,
                            "hidden": false,
                            "editable": true,
                            "displayName": "AIX_kernel_type",
                            "comment": ""
                        }
                    ],
                    "inputField": "_raw",
                    "calculationID": "lfdm6az7dokcsor",
                    "owner": "Nmon_Config",
                    "editable": true,
                    "comment": "",
                    "calculationType": "Rex",
                    "expression": "BBB.+,[0-9].+,lsconf,\\\"Kernel\\sType:\\s(?P<AIX_kernel_type>.+\\w)\\\""
                },
                {
                    "outputFields": [
                        {
                            "fieldName": "AIX_plateform_firmware_level",
                            "owner": "Nmon_Config",
                            "type": "string",
                            "fieldSearch": "",
                            "required": false,
                            "multivalue": false,
                            "hidden": false,
                            "editable": true,
                            "displayName": "AIX_plateform_firmware_level",
                            "comment": ""
                        }
                    ],
                    "inputField": "_raw",
                    "calculationID": "lgebqsiby7v9ggb9",
                    "owner": "Nmon_Config",
                    "editable": true,
                    "comment": "",
                    "calculationType": "Rex",
                    "expression": "BBB.+,[0-9].+,lsconf,\\\"Platform\\sFirmware\\slevel:\\s(?P<AIX_plateform_firmware_level>.+\\w)\\\""
                },
                {
                    "outputFields": [
                        {
                            "fieldName": "AIX_std_Machine_SerialNumber",
                            "owner": "Nmon_Config",
                            "type": "string",
                            "fieldSearch": "",
                            "required": false,
                            "multivalue": false,
                            "hidden": false,
                            "editable": true,
                            "displayName": "AIX_std_Machine_SerialNumber",
                            "comment": ""
                        }
                    ],
                    "inputField": "_raw",
                    "calculationID": "zikmw9mi6hv3g14i",
                    "owner": "Nmon_Config",
                    "editable": true,
                    "comment": "",
                    "calculationType": "Rex",
                    "expression": "BBB.+,[0-9].+,lsconf,\\\"Machine\\sSerial\\sNumber:\\s(?P<AIX_std_Machine_SerialNumber>.+)\\\""
                },
                {
                    "outputFields": [
                        {
                            "fieldName": "AIX_alt_Machine_SerialNumber",
                            "owner": "Nmon_Config",
                            "type": "string",
                            "fieldSearch": "",
                            "required": false,
                            "multivalue": false,
                            "hidden": false,
                            "editable": true,
                            "displayName": "AIX_alt_Machine_SerialNumber",
                            "comment": ""
                        }
                    ],
                    "inputField": "_raw",
                    "calculationID": "fv40jctguxvzehfr",
                    "owner": "Nmon_Config",
                    "editable": true,
                    "comment": "",
                    "calculationType": "Rex",
                    "expression": "AAA,SerialNumber,(?P<AIX_alt_Machine_SerialNumber>\\w+)"
                },
                {
                    "outputFields": [
                        {
                            "fieldName": "AIX_Machine_SerialNumber",
                            "owner": "Nmon_Config",
                            "type": "string",
                            "fieldSearch": "",
                            "required": false,
                            "multivalue": false,
                            "hidden": false,
                            "editable": true,
                            "displayName": "AIX_Machine_SerialNumber",
                            "comment": ""
                        }
                    ],
                    "calculationID": "yg6i5g9slh00be29",
                    "owner": "Nmon_Config",
                    "editable": true,
                    "comment": "",
                    "calculationType": "Eval",
                    "expression": "if(isnotnull(AIX_std_Machine_SerialNumber), AIX_std_Machine_SerialNumber, AIX_alt_Machine_SerialNumber)"
                },
                {
                    "outputFields": [
                        {
                            "fieldName": "AIX_extracted_PoolID",
                            "owner": "Nmon_Config",
                            "type": "string",
                            "fieldSearch": "",
                            "required": false,
                            "multivalue": false,
                            "hidden": false,
                            "editable": true,
                            "displayName": "AIX_extracted_PoolID",
                            "comment": ""
                        }
                    ],
                    "inputField": "_raw",
                    "calculationID": "0al5wto52xk73nmi",
                    "owner": "Nmon_Config",
                    "editable": true,
                    "comment": "",
                    "calculationType": "Rex",
                    "expression": "BBB.+,[0-9].+,lparstat.+,\\\"Shared\\sPool\\sID\\s+\\:\\s(?P<AIX_extracted_PoolID>.+)\\\""
                },
                {
                    "outputFields": [
                        {
                            "fieldName": "AIX_PoolID",
                            "owner": "Nmon_Config",
                            "type": "string",
                            "fieldSearch": "",
                            "required": false,
                            "multivalue": false,
                            "hidden": false,
                            "editable": true,
                            "displayName": "AIX_PoolID",
                            "comment": ""
                        }
                    ],
                    "calculationID": "e2xigyjn1v48ia4i",
                    "owner": "Nmon_Config",
                    "editable": true,
                    "comment": "",
                    "calculationType": "Eval",
                    "expression": "if(AIX_extracted_PoolID==\"-\",\"N/A\" ,AIX_extracted_PoolID)"
                },
                {
                    "outputFields": [
                        {
                            "fieldName": "AIX_system_installed_CPUs",
                            "owner": "Nmon_Config",
                            "type": "string",
                            "fieldSearch": "",
                            "required": false,
                            "multivalue": false,
                            "hidden": false,
                            "editable": true,
                            "displayName": "AIX_system_installed_CPUs",
                            "comment": ""
                        }
                    ],
                    "inputField": "_raw",
                    "calculationID": "7am1e8z91azia4i",
                    "owner": "Nmon_Config",
                    "editable": true,
                    "comment": "",
                    "calculationType": "Rex",
                    "expression": "BBB.+,[0-9].+,lparstat.+,\\\"Maximum\\sPhysical\\sCPUs\\sin\\ssystem\\s+\\:\\s(?P<AIX_system_installed_CPUs>.+)\\\""
                },
                {
                    "outputFields": [
                        {
                            "fieldName": "AIX_system_active_CPUs",
                            "owner": "Nmon_Config",
                            "type": "string",
                            "fieldSearch": "",
                            "required": false,
                            "multivalue": false,
                            "hidden": false,
                            "editable": true,
                            "displayName": "AIX_system_active_CPUs",
                            "comment": ""
                        }
                    ],
                    "inputField": "_raw",
                    "calculationID": "asb8hez5rpet57b9",
                    "owner": "Nmon_Config",
                    "editable": true,
                    "comment": "",
                    "calculationType": "Rex",
                    "expression": "BBB.+,[0-9].+,lparstat.+,\\\"Active\\sPhysical\\sCPUs\\sin\\ssystem\\s+\\:\\s(?P<AIX_system_active_CPUs>.+)\\\""
                },
                {
                    "outputFields": [
                        {
                            "fieldName": "AIX_extracted_PoolCPUs",
                            "owner": "Nmon_Config",
                            "type": "string",
                            "fieldSearch": "",
                            "required": false,
                            "multivalue": false,
                            "hidden": false,
                            "editable": true,
                            "displayName": "AIX_extracted_PoolCPUs",
                            "comment": ""
                        }
                    ],
                    "inputField": "_raw",
                    "calculationID": "dvzplipwtvjkyb9",
                    "owner": "Nmon_Config",
                    "editable": true,
                    "comment": "",
                    "calculationType": "Rex",
                    "expression": "BBB.+,[0-9].+,lparstat.+,\\\"Active\\sCPUs\\sin\\sPool\\s+\\:\\s(?P<AIX_extracted_PoolCPUs>.+)\\\""
                },
                {
                    "outputFields": [
                        {
                            "fieldName": "AIX_PoolCPUs",
                            "owner": "Nmon_Config",
                            "type": "string",
                            "fieldSearch": "",
                            "required": false,
                            "multivalue": false,
                            "hidden": false,
                            "editable": true,
                            "displayName": "AIX_PoolCPUs",
                            "comment": ""
                        }
                    ],
                    "calculationID": "mxx337o1dhqqto6r",
                    "owner": "Nmon_Config",
                    "editable": true,
                    "comment": "",
                    "calculationType": "Eval",
                    "expression": "if(AIX_extracted_PoolCPUs==\"-\",\"N/A\" ,AIX_extracted_PoolCPUs)"
                },
                {
                    "outputFields": [
                        {
                            "fieldName": "AIX_entitled",
                            "owner": "Nmon_Config",
                            "type": "string",
                            "fieldSearch": "",
                            "required": false,
                            "multivalue": false,
                            "hidden": false,
                            "editable": true,
                            "displayName": "AIX_entitled",
                            "comment": ""
                        }
                    ],
                    "inputField": "_raw",
                    "calculationID": "nj9phsxfgoqiwwmi",
                    "owner": "Nmon_Config",
                    "editable": true,
                    "comment": "",
                    "calculationType": "Rex",
                    "expression": "BBB.+,[0-9].+,lparstat.+,\\\"Entitled\\sCapacity\\s+\\:\\s(?P<AIX_entitled>.+)\\\""
                },
                {
                    "outputFields": [
                        {
                            "fieldName": "AIX_processor",
                            "owner": "Nmon_Config",
                            "type": "string",
                            "fieldSearch": "",
                            "required": false,
                            "multivalue": false,
                            "hidden": false,
                            "editable": true,
                            "displayName": "AIX_processor",
                            "comment": ""
                        }
                    ],
                    "inputField": "_raw",
                    "calculationID": "7csb7fz840u23xr",
                    "owner": "Nmon_Config",
                    "editable": true,
                    "comment": "",
                    "calculationType": "Rex",
                    "expression": "BBB.+,[0-9].+,lsconf,\\\"Processor\\sType:\\s(?P<AIX_processor>.+\\w)\\\""
                },
                {
                    "outputFields": [
                        {
                            "fieldName": "AIX_partition_type",
                            "owner": "Nmon_Config",
                            "type": "string",
                            "fieldSearch": "",
                            "required": false,
                            "multivalue": false,
                            "hidden": false,
                            "editable": true,
                            "displayName": "AIX_partition_type",
                            "comment": ""
                        }
                    ],
                    "inputField": "_raw",
                    "calculationID": "1qhgmbmjtdxqfmelwyugg2pgb9",
                    "owner": "Nmon_Config",
                    "editable": true,
                    "comment": "",
                    "calculationType": "Rex",
                    "expression": "BBB.+,[0-9].+,lparstat -i,\\\"Type\\s{0,}:(?P<AIX_partition_type>.+\\w)\\\""
                },
                {
                    "outputFields": [
                        {
                            "fieldName": "AIX_partition_mode",
                            "owner": "Nmon_Config",
                            "type": "string",
                            "fieldSearch": "",
                            "required": false,
                            "multivalue": false,
                            "hidden": false,
                            "editable": true,
                            "displayName": "AIX_partition_mode",
                            "comment": ""
                        }
                    ],
                    "inputField": "_raw",
                    "calculationID": "xhsg9w2sdsnvayk24vkdfgvi",
                    "owner": "Nmon_Config",
                    "editable": true,
                    "comment": "",
                    "calculationType": "Rex",
                    "expression": "BBB.+,[0-9].+,lparstat -i,\\\"Mode\\s{0,}:(?P<AIX_partition_mode>.+\\w)\\\""
                },
                {
                    "outputFields": [
                        {
                            "fieldName": "AIX_max_physical_CPUs_in_system",
                            "owner": "Nmon_Config",
                            "type": "string",
                            "fieldSearch": "",
                            "required": false,
                            "multivalue": false,
                            "hidden": false,
                            "editable": true,
                            "displayName": "AIX_max_physical_CPUs_in_system",
                            "comment": ""
                        }
                    ],
                    "inputField": "_raw",
                    "calculationID": "z58sccdma0j60k3t8m7fu5wmi",
                    "owner": "Nmon_Config",
                    "editable": true,
                    "comment": "",
                    "calculationType": "Rex",
                    "expression": "BBB.+,[0-9].+,lparstat -i,\\\"Maximum\\sPhysical\\sCPUs\\sin\\ssystem\\s{0,}:\\s{0,}(?P<AIX_max_physical_CPUs_in_system>.+\\w)\\\""
                },
                {
                    "outputFields": [
                        {
                            "fieldName": "AIX_logicalcores",
                            "owner": "Nmon_Config",
                            "type": "string",
                            "fieldSearch": "",
                            "required": false,
                            "multivalue": false,
                            "hidden": false,
                            "editable": true,
                            "displayName": "AIX_logicalcores",
                            "comment": ""
                        }
                    ],
                    "calculationID": "jaovx5qb3ytfyldi",
                    "owner": "Nmon_Config",
                    "editable": true,
                    "comment": "",
                    "calculationType": "Eval",
                    "expression": "case(OStype==\"AIX\", if(isnotnull(cpu_cores_position2), cpu_cores_position2, cpu_cores_position1))"
                },
                {
                    "outputFields": [
                        {
                            "fieldName": "Linux_LEVEL",
                            "owner": "Nmon_Config",
                            "type": "string",
                            "fieldSearch": "",
                            "required": false,
                            "multivalue": false,
                            "hidden": false,
                            "editable": true,
                            "displayName": "Linux_LEVEL",
                            "comment": ""
                        }
                    ],
                    "inputField": "_raw",
                    "calculationID": "buohdn976k3jif6r",
                    "owner": "Nmon_Config",
                    "editable": true,
                    "comment": "",
                    "calculationType": "Rex",
                    "expression": "AAA,OS,Linux,(?P<Linux_LEVEL>.+)"
                },
                {
                    "outputFields": [
                        {
                            "fieldName": "Linux_arch",
                            "owner": "Nmon_Config",
                            "type": "string",
                            "fieldSearch": "",
                            "required": false,
                            "multivalue": false,
                            "hidden": false,
                            "editable": true,
                            "displayName": "Linux_arch",
                            "comment": ""
                        }
                    ],
                    "inputField": "_raw",
                    "calculationID": "mr5mx7xy1tkik85z07ha4te29",
                    "owner": "Nmon_Config",
                    "editable": true,
                    "comment": "",
                    "calculationType": "Rex",
                    "expression": "BBB.+,[0-9].+lscpu,.+(Architecture)\\s*:\\s+(?P<Linux_arch>.+)\\\""
                },
                {
                    "outputFields": [
                        {
                            "fieldName": "Linux_processor_lscpu",
                            "owner": "Nmon_Config",
                            "type": "string",
                            "fieldSearch": "",
                            "required": false,
                            "multivalue": false,
                            "hidden": false,
                            "editable": true,
                            "displayName": "Linux_processor_lscpu",
                            "comment": ""
                        }
                    ],
                    "inputField": "_raw",
                    "calculationID": "ifdkxulqyuvxi529",
                    "owner": "Nmon_Config",
                    "editable": true,
                    "comment": "",
                    "calculationType": "Rex",
                    "expression": "BBB.+,[0-9].+lscpu,.+(Model\\sname|Model|Vendor\\sID)\\s*:\\s+(?P<Linux_processor_lscpu>.+)\\\""
                },
                {
                    "outputFields": [
                        {
                            "fieldName": "Linux_processor_cpuinfo",
                            "owner": "Nmon_Config",
                            "type": "string",
                            "fieldSearch": "",
                            "required": false,
                            "multivalue": false,
                            "hidden": false,
                            "editable": true,
                            "displayName": "Linux_processor_cpuinfo",
                            "comment": ""
                        }
                    ],
                    "inputField": "_raw",
                    "calculationID": "f4nl8hxy8679swfn8doyldi",
                    "owner": "Nmon_Config",
                    "editable": true,
                    "comment": "",
                    "calculationType": "Rex",
                    "expression": "BBB.+,[0-9].+cpuinfo,.+(model\\sname)\\s*:\\s+(?P<Linux_processor_cpuinfo>.+)\\\""
                },
                {
                    "outputFields": [
                        {
                            "fieldName": "Linux_release_distribution",
                            "owner": "Nmon_Config",
                            "type": "string",
                            "fieldSearch": "",
                            "required": false,
                            "multivalue": false,
                            "hidden": false,
                            "editable": true,
                            "displayName": "Linux_release_distribution",
                            "comment": ""
                        }
                    ],
                    "inputField": "_raw",
                    "calculationID": "s1yinv2mqc2l0udi",
                    "owner": "Nmon_Config",
                    "editable": true,
                    "comment": "",
                    "calculationType": "Rex",
                    "expression": "BBB.+,[0-9].+,.+etc+.release,\\\"(?!LSB_VERSION|DISTRIB|NAME|ID|VERSION)(?P<Linux_release_distribution>.+)\\\""
                },
                {
                    "outputFields": [
                        {
                            "fieldName": "Linux_lsb_distribution",
                            "owner": "Nmon_Config",
                            "type": "string",
                            "fieldSearch": "",
                            "required": false,
                            "multivalue": false,
                            "hidden": false,
                            "editable": true,
                            "displayName": "Linux_lsb_distribution",
                            "comment": ""
                        }
                    ],
                    "inputField": "_raw",
                    "calculationID": "9vfbvrquy27nl8fr",
                    "owner": "Nmon_Config",
                    "editable": true,
                    "comment": "",
                    "calculationType": "Rex",
                    "expression": "BBB.+,[0-9].+,lsb_release,\\\"Description:\\s*(?<Linux_lsb_distribution>.+)\\\""
                },
                {
                    "outputFields": [
                        {
                            "fieldName": "Linux_distribution_raw",
                            "owner": "Nmon_Config",
                            "type": "string",
                            "fieldSearch": "",
                            "required": false,
                            "multivalue": false,
                            "hidden": false,
                            "editable": true,
                            "displayName": "Linux_distribution_raw",
                            "comment": ""
                        }
                    ],
                    "calculationID": "2qslkpsp5i6swcdi",
                    "owner": "Nmon_Config",
                    "editable": true,
                    "comment": "",
                    "calculationType": "Eval",
                    "expression": "if(isnotnull(Linux_lsb_distribution), Linux_lsb_distribution, Linux_release_distribution)"
                },
                {
                    "outputFields": [
                        {
                            "fieldName": "Linux_distribution_pretty_name",
                            "owner": "Nmon_Config",
                            "type": "string",
                            "fieldSearch": "",
                            "required": false,
                            "multivalue": false,
                            "hidden": false,
                            "editable": true,
                            "displayName": "Linux_distribution_pretty_name",
                            "comment": ""
                        }
                    ],
                    "inputField": "Linux_distribution_raw",
                    "calculationID": "cv346acvbqp8aj1t8rrnyu8fr",
                    "owner": "Nmon_Config",
                    "editable": true,
                    "comment": "",
                    "calculationType": "Rex",
                    "expression": "PRETTY_NAME=(?<Linux_distribution_pretty_name>.*)"
                },
                {
                    "outputFields": [
                        {
                            "fieldName": "Linux_distribution",
                            "owner": "Nmon_Config",
                            "type": "string",
                            "fieldSearch": "",
                            "required": false,
                            "multivalue": false,
                            "hidden": false,
                            "editable": true,
                            "displayName": "Linux_distribution",
                            "comment": ""
                        }
                    ],
                    "calculationID": "pjqye6nruketu6fp0vifnu3di",
                    "owner": "Nmon_Config",
                    "editable": true,
                    "comment": "",
                    "calculationType": "Eval",
                    "expression": "if(isnull(Linux_distribution_pretty_name), Linux_distribution_raw, Linux_distribution_pretty_name)"
                },
                {
                    "outputFields": [
                        {
                            "fieldName": "Linux_lsb_distibutorid",
                            "owner": "Nmon_Config",
                            "type": "string",
                            "fieldSearch": "",
                            "required": false,
                            "multivalue": false,
                            "hidden": false,
                            "editable": true,
                            "displayName": "Linux_lsb_distibutorid",
                            "comment": ""
                        }
                    ],
                    "inputField": "_raw",
                    "calculationID": "4bo6vrb07ac92j4i",
                    "owner": "Nmon_Config",
                    "editable": true,
                    "comment": "",
                    "calculationType": "Rex",
                    "expression": "BBB.+,[0-9].+,lsb_release,\\\"Distributor\\s*ID:\\s*(?<Linux_lsb_distibutorid>.+)\\\""
                },
                {
                    "outputFields": [
                        {
                            "fieldName": "Linux_lsb_releaseid",
                            "owner": "Nmon_Config",
                            "type": "string",
                            "fieldSearch": "",
                            "required": false,
                            "multivalue": false,
                            "hidden": false,
                            "editable": true,
                            "displayName": "Linux_lsb_releaseid",
                            "comment": ""
                        }
                    ],
                    "inputField": "_raw",
                    "calculationID": "y2w77ae8g89i19k9",
                    "owner": "Nmon_Config",
                    "editable": true,
                    "comment": "",
                    "calculationType": "Rex",
                    "expression": "BBB.+,[0-9].+,lsb_release,\\\"Release:\\s*(?<Linux_lsb_releaseid>.+)\\\""
                },
                {
                    "outputFields": [
                        {
                            "fieldName": "Linux_vendor",
                            "owner": "Nmon_Config",
                            "type": "string",
                            "fieldSearch": "",
                            "required": false,
                            "multivalue": false,
                            "hidden": false,
                            "editable": true,
                            "displayName": "Linux_vendor",
                            "comment": ""
                        }
                    ],
                    "calculationID": "xe7szov480nt57b9",
                    "owner": "Nmon_Config",
                    "editable": true,
                    "comment": "",
                    "calculationType": "Eval",
                    "expression": "if(isnotnull(Linux_lsb_distibutorid), Linux_lsb_distibutorid, \"Undeterminated\")"
                },
                {
                    "outputFields": [
                        {
                            "fieldName": "Linux_version",
                            "owner": "Nmon_Config",
                            "type": "string",
                            "fieldSearch": "",
                            "required": false,
                            "multivalue": false,
                            "hidden": false,
                            "editable": true,
                            "displayName": "Linux_version",
                            "comment": ""
                        }
                    ],
                    "inputField": "_raw",
                    "calculationID": "c2dkordeuel5l8fr",
                    "owner": "Nmon_Config",
                    "editable": true,
                    "comment": "",
                    "calculationType": "Rex",
                    "expression": "BBB.+,[0-9].+,lsb\\_release,\\\"Release:\\s+(?P<Linux_version>.+)\\\""
                },
                {
                    "outputFields": [
                        {
                            "fieldName": "Linux_memory_kB",
                            "owner": "Nmon_Config",
                            "type": "string",
                            "fieldSearch": "",
                            "required": false,
                            "multivalue": false,
                            "hidden": false,
                            "editable": true,
                            "displayName": "Linux_memory_kB",
                            "comment": ""
                        }
                    ],
                    "inputField": "_raw",
                    "calculationID": "04aqz4btayh9f6r",
                    "owner": "Nmon_Config",
                    "editable": true,
                    "comment": "",
                    "calculationType": "Rex",
                    "expression": "BBB.+,[0-9].+,.proc.meminfo,\\\"MemTotal:\\s+(?P<Linux_memory_kB>\\d+)"
                },
                {
                    "outputFields": [
                        {
                            "fieldName": "Linux_memory_MB",
                            "owner": "Nmon_Config",
                            "type": "string",
                            "fieldSearch": "",
                            "required": false,
                            "multivalue": false,
                            "hidden": false,
                            "editable": true,
                            "displayName": "Linux_memory_MB",
                            "comment": ""
                        }
                    ],
                    "calculationID": "d2hwa4y1y9lwstt9",
                    "owner": "Nmon_Config",
                    "editable": true,
                    "comment": "",
                    "calculationType": "Eval",
                    "expression": "round(Linux_memory_kB/1024,0)"
                },
                {
                    "outputFields": [
                        {
                            "fieldName": "Linux_swap_kB",
                            "owner": "Nmon_Config",
                            "type": "string",
                            "fieldSearch": "",
                            "required": false,
                            "multivalue": false,
                            "hidden": false,
                            "editable": true,
                            "displayName": "Linux_swap_kB",
                            "comment": ""
                        }
                    ],
                    "inputField": "_raw",
                    "calculationID": "iup7m1z62tv2huxr",
                    "owner": "Nmon_Config",
                    "editable": true,
                    "comment": "",
                    "calculationType": "Rex",
                    "expression": "BBB.+,[0-9].+,.proc.meminfo,\\\"SwapTotal:\\s+(?P<Linux_swap_kB>\\d+)"
                },
                {
                    "outputFields": [
                        {
                            "fieldName": "Linux_swap_MB",
                            "owner": "Nmon_Config",
                            "type": "string",
                            "fieldSearch": "",
                            "required": false,
                            "multivalue": false,
                            "hidden": false,
                            "editable": true,
                            "displayName": "Linux_swap_MB",
                            "comment": ""
                        }
                    ],
                    "calculationID": "076rys97yi16pqfr",
                    "owner": "Nmon_Config",
                    "editable": true,
                    "comment": "",
                    "calculationType": "Eval",
                    "expression": "round(Linux_swap_kB/1024,0)"
                },
                {
                    "outputFields": [
                        {
                            "fieldName": "Linux_kernelversion",
                            "owner": "Nmon_Config",
                            "type": "string",
                            "fieldSearch": "",
                            "required": false,
                            "multivalue": false,
                            "hidden": false,
                            "editable": true,
                            "displayName": "Linux_kernelversion",
                            "comment": ""
                        }
                    ],
                    "inputField": "_raw",
                    "calculationID": "er03rsuvok6e0zfr",
                    "owner": "Nmon_Config",
                    "editable": true,
                    "comment": "",
                    "calculationType": "Rex",
                    "expression": "AAA,OS,Linux,(?P<Linux_kernelversion>\\d+.\\d+).+,#"
                },
                {
                    "outputFields": [
                        {
                            "fieldName": "Linux_kernel",
                            "owner": "Nmon_Config",
                            "type": "string",
                            "fieldSearch": "",
                            "required": false,
                            "multivalue": false,
                            "hidden": false,
                            "editable": true,
                            "displayName": "Linux_kernel",
                            "comment": ""
                        }
                    ],
                    "inputField": "_raw",
                    "calculationID": "3tmsfw7nmavpldi",
                    "owner": "Nmon_Config",
                    "editable": true,
                    "comment": "",
                    "calculationType": "Rex",
                    "expression": "AAA,OS,Linux,(?P<Linux_kernel>.+),#"
                },
                {
                    "outputFields": [
                        {
                            "fieldName": "Linux_fullkernel",
                            "owner": "Nmon_Config",
                            "type": "string",
                            "fieldSearch": "",
                            "required": false,
                            "multivalue": false,
                            "hidden": false,
                            "editable": true,
                            "displayName": "Linux_fullkernel",
                            "comment": ""
                        }
                    ],
                    "inputField": "_raw",
                    "calculationID": "xop04li64fclq5mi",
                    "owner": "Nmon_Config",
                    "editable": true,
                    "comment": "",
                    "calculationType": "Rex",
                    "expression": "AAA,OS,Linux,(?P<Linux_fullkernel>.+)"
                },
                {
                    "outputFields": [
                        {
                            "fieldName": "Solaris_LEVEL",
                            "owner": "Nmon_Config",
                            "type": "string",
                            "fieldSearch": "",
                            "required": false,
                            "multivalue": false,
                            "hidden": false,
                            "editable": true,
                            "displayName": "Solaris_LEVEL",
                            "comment": ""
                        }
                    ],
                    "inputField": "_raw",
                    "calculationID": "8nu2r62ggxbhuxr",
                    "owner": "Nmon_Config",
                    "editable": true,
                    "comment": "",
                    "calculationType": "Rex",
                    "expression": "AAA,OS,Solaris,(?P<Solaris_LEVEL>.+)"
                },
                {
                    "outputFields": [
                        {
                            "fieldName": "Solaris_phy_mem_MB_extract",
                            "owner": "Nmon_Config",
                            "type": "string",
                            "fieldSearch": "",
                            "required": false,
                            "multivalue": false,
                            "hidden": false,
                            "editable": true,
                            "displayName": "Solaris_phy_mem_MB_extract",
                            "comment": ""
                        }
                    ],
                    "inputField": "_raw",
                    "calculationID": "qtinojxt2tdxilf0a3qrozuxr",
                    "owner": "Nmon_Config",
                    "editable": true,
                    "comment": "",
                    "calculationType": "Rex",
                    "expression": "BBB.,.*,prtdiag,\\\"Memory\\s*size:\\s*(?<Solaris_phy_mem_MB_extract>\\d*)\\s*Megabytes\\\""
                },
                {
                    "outputFields": [
                        {
                            "fieldName": "Solaris_phy_mem_GB_extract",
                            "owner": "Nmon_Config",
                            "type": "string",
                            "fieldSearch": "",
                            "required": false,
                            "multivalue": false,
                            "hidden": false,
                            "editable": true,
                            "displayName": "Solaris_phy_mem_GB_extract",
                            "comment": ""
                        }
                    ],
                    "inputField": "_raw",
                    "calculationID": "w8z7pbyss9cxk2c90juelv7vi",
                    "owner": "Nmon_Config",
                    "editable": true,
                    "comment": "",
                    "calculationType": "Rex",
                    "expression": "BBB.,.*,prtdiag,\\\"Memory\\s*size:\\s*(?<Solaris_phy_mem_GB_extract>\\d*)\\s*GB"
                },
                {
                    "outputFields": [
                        {
                            "fieldName": "Solaris_physical_memory_MB",
                            "owner": "Nmon_Config",
                            "type": "string",
                            "fieldSearch": "",
                            "required": false,
                            "multivalue": false,
                            "hidden": false,
                            "editable": true,
                            "displayName": "Solaris_physical_memory_MB",
                            "comment": ""
                        }
                    ],
                    "calculationID": "syftxzogd8mjqdhdhhhncdi",
                    "owner": "Nmon_Config",
                    "editable": true,
                    "comment": "",
                    "calculationType": "Eval",
                    "expression": "case( OStype == \"Solaris\", case(isnotnull(Solaris_phy_mem_MB_extract), Solaris_phy_mem_MB_extract, isnotnull(Solaris_phy_mem_GB_extract), (Solaris_phy_mem_GB_extract/1024)) )"
                },
                {
                    "outputFields": [
                        {
                            "fieldName": "Solaris_kernel",
                            "owner": "Nmon_Config",
                            "type": "string",
                            "fieldSearch": "",
                            "required": false,
                            "multivalue": false,
                            "hidden": false,
                            "editable": true,
                            "displayName": "Solaris_kernel",
                            "comment": ""
                        }
                    ],
                    "inputField": "_raw",
                    "calculationID": "xs8og491kiall3di",
                    "owner": "Nmon_Config",
                    "editable": true,
                    "comment": "",
                    "calculationType": "Rex",
                    "expression": "AAA,OS,Solaris,.+,(?P<Solaris_kernel>.+),.+,.+"
                },
                {
                    "outputFields": [
                        {
                            "fieldName": "Solaris_sunOS_version",
                            "owner": "Nmon_Config",
                            "type": "string",
                            "fieldSearch": "",
                            "required": false,
                            "multivalue": false,
                            "hidden": false,
                            "editable": true,
                            "displayName": "Solaris_sunOS_version",
                            "comment": ""
                        }
                    ],
                    "inputField": "_raw",
                    "calculationID": "4licpdnxtvrevcxr",
                    "owner": "Nmon_Config",
                    "editable": true,
                    "comment": "",
                    "calculationType": "Rex",
                    "expression": "AAA,OS,Solaris,(?P<Solaris_sunOS_version>.+),.+,.+,.+"
                },
                {
                    "outputFields": [
                        {
                            "fieldName": "Solaris_version",
                            "owner": "Nmon_Config",
                            "type": "string",
                            "fieldSearch": "",
                            "required": false,
                            "multivalue": false,
                            "hidden": false,
                            "editable": true,
                            "displayName": "Solaris_version",
                            "comment": ""
                        }
                    ],
                    "inputField": "_raw",
                    "calculationID": "rmy2nnotqllq5mi",
                    "owner": "Nmon_Config",
                    "editable": true,
                    "comment": "",
                    "calculationType": "Rex",
                    "expression": "BBB.+,[0-9].+,.+etc+.release,\\\"\\s+(?P<Solaris_version>.+)\\\""
                },
                {
                    "outputFields": [
                        {
                            "fieldName": "Solaris_processor_primary",
                            "owner": "Nmon_Config",
                            "type": "string",
                            "fieldSearch": "",
                            "required": false,
                            "multivalue": false,
                            "hidden": false,
                            "editable": true,
                            "displayName": "Solaris_processor_primary",
                            "comment": ""
                        }
                    ],
                    "inputField": "_raw",
                    "calculationID": "erzxcfrhlwxt7qfr",
                    "owner": "Nmon_Config",
                    "editable": true,
                    "comment": "",
                    "calculationType": "Rex",
                    "expression": "BBB.+,[0-9].+psrinfo\\s\\-pv,\\\"\\s+(?P<Solaris_processor_primary>.+)\\s*\\(.+clock.+\\\""
                },
                {
                    "outputFields": [
                        {
                            "fieldName": "Solaris_processor_clock_primary",
                            "owner": "Nmon_Config",
                            "type": "string",
                            "fieldSearch": "",
                            "required": false,
                            "multivalue": false,
                            "hidden": false,
                            "editable": true,
                            "displayName": "Solaris_processor_clock_primary",
                            "comment": ""
                        }
                    ],
                    "inputField": "_raw",
                    "calculationID": "spi82j182etawcdi",
                    "owner": "Nmon_Config",
                    "editable": true,
                    "comment": "",
                    "calculationType": "Rex",
                    "expression": "BBB.+,[0-9].+psrinfo\\s\\-pv,.+clock\\s(?P<Solaris_processor_clock_primary>.+)\\)\\\""
                },
                {
                    "outputFields": [
                        {
                            "fieldName": "Solaris_processor_alt",
                            "owner": "Nmon_Config",
                            "type": "string",
                            "fieldSearch": "",
                            "required": false,
                            "multivalue": false,
                            "hidden": false,
                            "editable": true,
                            "displayName": "Solaris_processor_alt",
                            "comment": ""
                        },
                        {
                            "fieldName": "Solaris_processor_clock_alt",
                            "owner": "Nmon_Config",
                            "type": "string",
                            "fieldSearch": "",
                            "required": false,
                            "multivalue": false,
                            "hidden": false,
                            "editable": true,
                            "displayName": "Solaris_processor_clock_alt",
                            "comment": ""
                        }
                    ],
                    "inputField": "_raw",
                    "calculationID": "fqh7xokpt3yjzkum3ccz4u0udi",
                    "owner": "Nmon_Config",
                    "editable": true,
                    "comment": "",
                    "calculationType": "Rex",
                    "expression": "BBB.+,[0-9].+prtdiag,\\\"0\\s*(?<Solaris_processor_clock_alt>[\\d|\\.]*\\s*\\w*)\\s*(?P<Solaris_processor_alt>[\\w|-]*)\\s*"
                },
                {
                    "outputFields": [
                        {
                            "fieldName": "Solaris_processor_clockspeed",
                            "owner": "Nmon_Config",
                            "type": "string",
                            "fieldSearch": "",
                            "required": false,
                            "multivalue": false,
                            "hidden": false,
                            "editable": true,
                            "displayName": "Solaris_processor_clockspeed",
                            "comment": ""
                        }
                    ],
                    "calculationID": "5u6bef2gukczqgy780ta603sor",
                    "owner": "Nmon_Config",
                    "editable": true,
                    "comment": "",
                    "calculationType": "Eval",
                    "expression": "case( OStype == \"Solaris\", if(isnotnull(Solaris_processor_clock_primary), Solaris_processor_clock_primary, Solaris_processor_clock_alt) )"
                },
                {
                    "outputFields": [
                        {
                            "fieldName": "OS_Level",
                            "owner": "Nmon_Config",
                            "type": "string",
                            "fieldSearch": "",
                            "required": false,
                            "multivalue": false,
                            "hidden": false,
                            "editable": true,
                            "displayName": "OS_Level",
                            "comment": ""
                        }
                    ],
                    "calculationID": "xsnrryemzr4cmcxr",
                    "owner": "Nmon_Config",
                    "editable": true,
                    "comment": "",
                    "calculationType": "Eval",
                    "expression": "case(isnotnull(AIX_LEVEL), AIX_LEVEL, isnotnull(Solaris_version), Solaris_version, isnotnull(Linux_distribution), Linux_distribution)"
                },
                {
                    "outputFields": [
                        {
                            "fieldName": "cpu_cores_with_vp",
                            "owner": "Nmon_Config",
                            "type": "string",
                            "fieldSearch": "",
                            "required": false,
                            "multivalue": false,
                            "hidden": false,
                            "editable": true,
                            "displayName": "cpu_cores_with_vp",
                            "comment": ""
                        }
                    ],
                    "calculationID": "bsqas22opsc",
                    "owner": "Nmon_Config",
                    "editable": true,
                    "comment": "",
                    "calculationType": "Eval",
                    "expression": "AIX_virtualcpus . \" / \" . cpu_cores_position2"
                },
                {
                    "outputFields": [
                        {
                            "fieldName": "cpu_cores",
                            "owner": "Nmon_Config",
                            "type": "string",
                            "fieldSearch": "",
                            "required": false,
                            "multivalue": false,
                            "hidden": false,
                            "editable": true,
                            "displayName": "cpu_cores",
                            "comment": ""
                        }
                    ],
                    "calculationID": "jb6kr5ya00kn8kt9",
                    "owner": "Nmon_Config",
                    "editable": true,
                    "comment": "",
                    "calculationType": "Eval",
                    "expression": "if(isnotnull(AIX_virtualcpus), cpu_cores_with_vp, cpu_cores_position1)"
                },
                {
                    "outputFields": [
                        {
                            "fieldName": "Processor",
                            "owner": "Nmon_Config",
                            "type": "string",
                            "fieldSearch": "",
                            "required": false,
                            "multivalue": false,
                            "hidden": false,
                            "editable": true,
                            "displayName": "Processor",
                            "comment": ""
                        }
                    ],
                    "calculationID": "q70144l2w3oywrk9",
                    "owner": "Nmon_Config",
                    "editable": true,
                    "comment": "",
                    "calculationType": "Eval",
                    "expression": "case(OStype == \"AIX\", AIX_processor, OStype == \"Solaris\", case(isnotnull(Solaris_processor_primary), Solaris_processor_primary, isnotnull(Solaris_processor_alt), Solaris_processor_alt), OStype == \"Linux\",  case(isnotnull(Linux_processor_lscpu), Linux_processor_lscpu + \" (arch: \" + Linux_arch + \")\" , isnull(Linux_processor_lscpu), Linux_processor_cpuinfo) )"
                },
                {
                    "outputFields": [
                        {
                            "fieldName": "event_epoch",
                            "owner": "Nmon_Config",
                            "type": "number",
                            "fieldSearch": "",
                            "required": false,
                            "multivalue": false,
                            "hidden": false,
                            "editable": true,
                            "displayName": "event_epoch",
                            "comment": ""
                        }
                    ],
                    "calculationID": "0798lb6p9hy78u3o2dn7l7syvi",
                    "owner": "Nmon_Config",
                    "editable": true,
                    "comment": "",
                    "calculationType": "Eval",
                    "expression": "strftime('_time', \"%s\")"
                }
            ],
            "constraints": [
                {
                    "search": "(eventtype=nmon:config)",
                    "owner": "Nmon_Config"
                }
            ],
            "lineage": "Nmon_Config"
        },
        {
            "objectName": "Uptime",
            "displayName": "Uptime (nmon external)",
            "parentName": "BaseEvent",
            "comment": "",
            "fields": [
                {
                    "fieldName": "uptime",
                    "owner": "Uptime",
                    "type": "string",
                    "fieldSearch": "",
                    "required": false,
                    "multivalue": false,
                    "hidden": false,
                    "editable": true,
                    "displayName": "uptime",
                    "comment": ""
                },
                {
                    "fieldName": "OStype",
                    "owner": "Uptime",
                    "type": "string",
                    "fieldSearch": "",
                    "required": false,
                    "multivalue": false,
                    "hidden": false,
                    "editable": true,
                    "displayName": "OStype",
                    "comment": ""
                },
                {
                    "fieldName": "_time",
                    "owner": "BaseEvent",
                    "type": "timestamp",
                    "fieldSearch": "",
                    "required": false,
                    "multivalue": false,
                    "hidden": false,
                    "editable": true,
                    "displayName": "_time",
                    "comment": ""
                },
                {
                    "fieldName": "host",
                    "owner": "BaseEvent",
                    "type": "string",
                    "fieldSearch": "",
                    "required": false,
                    "multivalue": false,
                    "hidden": false,
                    "editable": true,
                    "displayName": "host",
                    "comment": ""
                },
                {
                    "fieldName": "source",
                    "owner": "BaseEvent",
                    "type": "string",
                    "fieldSearch": "",
                    "required": false,
                    "multivalue": false,
                    "hidden": false,
                    "editable": true,
                    "displayName": "source",
                    "comment": ""
                },
                {
                    "fieldName": "sourcetype",
                    "owner": "BaseEvent",
                    "type": "string",
                    "fieldSearch": "",
                    "required": false,
                    "multivalue": false,
                    "hidden": false,
                    "editable": true,
                    "displayName": "sourcetype",
                    "comment": ""
                }
            ],
            "calculations": [
                {
                    "outputFields": [
                        {
                            "fieldName": "event_epoch",
                            "owner": "Uptime",
                            "type": "number",
                            "fieldSearch": "",
                            "required": false,
                            "multivalue": false,
                            "hidden": false,
                            "editable": true,
                            "displayName": "event_epoch",
                            "comment": ""
                        }
                    ],
                    "calculationID": "iyd3wjcd8245z6hh09u6dpldi",
                    "owner": "Uptime",
                    "editable": true,
                    "comment": "",
                    "calculationType": "Eval",
                    "expression": "strftime('_time', \"%s\")"
                }
            ],
            "constraints": [
                {
                    "search": "(eventtype=nmon:events type=UPTIME)",
                    "owner": "Uptime"
                }
            ],
            "lineage": "Uptime"
        }
    ],
    "objectNameList": [
        "Nmon_Config",
        "Uptime"
    ]
}
